[
    {
        "songPath" : "../assets/songs/Spaceman.mp3",
        "songCover":"../assets/covers/Spaceman.mp3"
    },
    {
        "songPath" : "../assets/songs/Zombie(GammerExtendedFlip).mp3",
        "songCover":"../assets/covers/Zombie(GammerExtendedFlip).mp3"
    },
    {
        "songPath" : "../assets/songs/Young&Beautiful.mp3",
        "songCover":"../assets/covers/Young&Beautiful.mp3"
    }
    
]